%YAML 1.1
%TAG !u! tag:unity3d.com,2011:
--- !u!114 &11400000
MonoBehaviour:
  m_ObjectHideFlags: 0
  m_CorrespondingSourceObject: {fileID: 0}
  m_PrefabInstance: {fileID: 0}
  m_PrefabAsset: {fileID: 0}
  m_GameObject: {fileID: 0}
  m_Enabled: 1
  m_EditorHideFlags: 0
  m_Script: {fileID: 11500000, guid: 4c5e915a16a628545ab45754815c0579, type: 3}
  m_Name: SimpleRandomWalkParameters_SmallDungeon
  m_EditorClassIdentifier: 
  iterations: 20
  walkLength: 20
  startRandomlyEachIteration: 1
